[
  {
    "tops": [
      {
        "id": 1,
        "name": "damage1",
        "left": "128.32813464753053",
        "top": " 275.44364784509526",
        "value": "4",
        "img": "https://cdn.syarah.com/online/inspection_points/2379/0x683/1601913002-851.jpg"
      },
      {
        "id": 1,
        "name": "damage2",
        "left": "100.32813464753053",
        "top": " 175.44364784509526",
        "value": "4",
        "img": "https://cdn.syarah.com/online/inspection_points/2379/0x683/1601913002-851.jpg"
      },
      {
        "id": 1,
        "name": "damage3",
        "left": "128.32813464753053",
        "top": " 275.44364784509526",
        "value": "4",
        "img": "https://cdn.syarah.com/online/inspection_points/2379/0x683/1601913002-851.jpg"
      }
    ],
  
    "fronts": [
      {
        "id": 1,
        "name": "damage1",
        "left": "120.19677959280307",
        "top": "96.55570630750663",
        "value": "4",
        "img": "https://cdn.syarah.com/online/inspection_points/2379/0x683/1601913002-851.jpg"
      },
      {
        "id": 1,
        "name": "damage2",
        "left": "110.59401",
        "top": " 13.223404",
        "value": "4",
        "img": "https://cdn.syarah.com/online/inspection_points/2379/0x683/1601913002-851.jpg"
      }
    ],
  
    "backs": [
      {
        "id": 1,
        "name": "damage1",
        "left": "137.01332518758136",
        "top": "36.675496636817115",
        "value": "4",
        "img": "https://cdn.syarah.com/online/inspection_points/2379/0x683/1601913002-851.jpg"
      },
      {
        "id": 2,
        "name": "damage2",
        "left": " 133.54724",
        "top": "22.27219",
        "value": "4",
        "img": "https://cdn.syarah.com/online/inspection_points/2379/0x683/1601913002-851.jpg"
      }
    ],
  
    "lefts": [
      {
        "id": 1,
        "name": "damage1",
        "left": "176.5196660263332",
        "top": " 30.37520910799867",
        "value": "4",
        "img": "https://cdn.syarah.com/online/inspection_points/2379/0x683/1601913002-851.jpg"
      },
      {
        "id": 2,
        "name": "damage3",
        "left": "165.533606",
        "top": "13.13685",
        "value": "4",
        "img": "https://cdn.syarah.com/online/inspection_points/2379/0x683/1601913002-851.jpg"
      },
      {
        "id": 3,
        "name": "damage2",
        "left": "74.533606",
        "top": "52.13685",
        "value": "4",
        "img": "https://cdn.syarah.com/online/inspection_points/2379/0x683/1601913002-851.jpg"
      }
    ],
  
    "rights": [
      {
        "id": 1,
        "name": "damage1",
        "left": "80.32",
        "top": "27.531",
        "value": "4",
        "img": "https://cdn.syarah.com/online/inspection_points/2379/0x683/1601913002-851.jpg"
      }
    ]
  }
]
