<?xml version="1.0" encoding="utf-8"?>
<!-- Generator: Adobe Illustrator 25.0.0, SVG Export Plug-In . SVG Version: 6.00 Build 0)  -->
<svg version="1.1" id="Layer_1" xmlns="http://www.w3.org/2000/svg" xmlns:xlink="http://www.w3.org/1999/xlink" x="0px" y="0px"
	 viewBox="0 0 200 200" style="enable-background:new 0 0 200 200;" xml:space="preserve">
<style type="text/css">
	.st0{fill:#010101;}
</style>
<g>
	<g>
		<g>
			<path class="st0" d="M181.5,30c-2.4,5.1-4.4,9.5-11.4,13c-7,3.5-11.7,2.5-17.2,1.3c-6-1.3-12.7-2.7-22,1.9
				c-9.3,4.6-12.2,10.9-14.8,16.4c-2.3,5.1-4.4,9.5-11.4,13c-7,3.5-11.7,2.5-17.2,1.3c-6-1.3-12.7-2.7-22,1.9S53.1,89.5,50.6,95
				c-2.4,5.1-4.4,9.5-11.4,13c-7,3.5-11.7,2.5-17.2,1.3c-6-1.3-12.7-2.7-22,1.9v6.5c7-3.5,15-2.5,20.4-1.3c6,1.3,12.7,2.7,22-1.9
				s12.2-10.9,14.8-16.4c2.3-5.1,4.4-9.5,11.4-13c7-3.5,11.7-2.5,17.2-1.3c6,1.3,12.7,2.7,22-1.9s12.2-10.9,14.8-16.4
				c2.4-5.1,4.4-9.5,11.4-13c7-3.5,11.7-2.5,17.2-1.3c6,1.3,12.7,2.7,22-1.9c9.3-4.6,12.2-10.9,14.8-16.4c2.4-5.1,4.8-9.5,11.8-13
				v-6.5C190.6,18.2,184,24.5,181.5,30z"/>
		</g>
	</g>
	<g>
		<g>
			<path class="st0" d="M181.5,98.7c-2.4,5.1-4.4,9.5-11.4,13c-7,3.5-11.7,2.5-17.2,1.3c-6-1.3-12.7-2.7-22,1.9
				c-9.3,4.6-12.2,10.9-14.8,16.4c-2.3,5.1-4.4,9.5-11.4,13c-7,3.5-11.7,2.5-17.2,1.3c-6-1.3-12.7-2.7-22,1.9
				c-9.3,4.6-12.2,10.9-14.8,16.4c-2.4,5.1-4.4,9.5-11.4,13c-7,3.5-11.7,2.5-17.2,1.3c-6-1.3-12.7-2.7-22,1.9l0,6.6
				c7-3.5,14.9-2.5,20.4-1.3c6,1.3,12.7,2.7,22-1.9s12.2-10.9,14.8-16.4c2.3-5.1,4.4-9.5,11.4-13c7-3.5,11.7-2.5,17.2-1.3
				c6,1.3,12.7,2.7,22-1.9s12.2-10.9,14.8-16.4c2.4-5.1,4.4-9.5,11.4-13c7-3.5,11.7-2.5,17.2-1.3c6,1.3,12.7,2.7,22-1.9
				c9.3-4.6,12.2-10.9,14.8-16.4c2.4-5.1,4.8-9.4,11.8-12.9v-7.8C190.6,85.7,184,93.2,181.5,98.7z"/>
		</g>
	</g>
	<g>
		<g>
			<path class="st0" d="M181.5,62.7c-2.4,5.1-4.4,9.5-11.4,13c-7,3.5-11.7,2.5-17.2,1.3c-6-1.3-12.7-2.7-22,1.9
				c-9.3,4.6-12.2,10.9-14.8,16.4c-2.3,5.1-4.4,9.5-11.4,13c-7,3.5-11.7,2.5-17.2,1.3c-6-1.3-12.7-2.7-22,1.9
				c-9.3,4.6-12.2,10.9-14.8,16.4c-2.4,5.1-4.4,9.5-11.4,13c-7,3.5-11.7,2.5-17.2,1.3c-6-1.3-12.7-2.7-22,1.9l0,6.6
				c7-3.5,14.9-2.5,20.4-1.3c6,1.3,12.7,2.7,22-1.9s12.2-10.9,14.8-16.4c2.3-5.1,4.4-9.5,11.4-13c7-3.5,11.7-2.5,17.2-1.3
				c6,1.3,12.7,2.7,22-1.9s12.2-10.9,14.8-16.4c2.4-5.1,4.4-9.5,11.4-13c7-3.5,11.7-2.5,17.2-1.3c6,1.3,12.7,2.7,22-1.9
				c9.3-4.6,12.2-10.9,14.8-16.4c2.4-5.1,4.8-9.5,11.8-13v-7.2C190.6,50.3,184,57.2,181.5,62.7z"/>
		</g>
	</g>
</g>
</svg>
